R data visualisation
…
diabetes_data <- diabetes_data %>% mutate(height_cm=round((2.54*height),1))
diabetes_data <- diabetes_data %>% mutate(weight_kg=round((weight/2.205),1))
diabetes_data <- diabetes_data %>% mutate(waist_cm=round((2.54*waist),1))
diabetes_data <- diabetes_data %>% mutate(hip_cm=round((2.54*hip),1))

# count how many people weight less than 100kg
diabetes_data %>% filter(weight_kg < 100) 

## # A tibble: 349 x 23
##       id  chol stab.glu   hdl ratio glyhb location   age gender height weight
##    <dbl> <dbl>    <dbl> <dbl> <dbl> <dbl> <chr>    <dbl> <chr>   <dbl>  <dbl>
##  1  1000   203       82    56  3.60  4.31 Bucking…    46 female     62    121
##  2  1001   165       97    24  6.90  4.44 Bucking…    29 female     64    218
##  3  1003    78       93    12  6.5   4.63 Bucking…    67 male       67    119
##  4  1005   249       90    28  8.90  7.72 Bucking…    64 male       68    183
##  5  1008   248       94    69  3.60  4.81 Bucking…    34 male       71    190
##  6  1011   195       92    41  4.80  4.84 Bucking…    30 male       69    191
##  7  1015   227       75    44  5.20  3.94 Bucking…    37 male       59    170
##  8  1016   177       87    49  3.60  4.84 Bucking…    45 male       69    166
##  9  1022   263       89    40  6.60  5.78 Bucking…    55 female     63    202
## 10  1024   242       82    54  4.5   4.77 Louisa      60 female     65    156
## # … with 339 more rows, and 12 more variables: frame <chr>, bp.1s <dbl>,
## #   bp.1d <dbl>, bp.2s <dbl>, bp.2d <dbl>, waist <dbl>, hip <dbl>,
## #   time.ppn <dbl>, height_cm <dbl>, weight_kg <dbl>, waist_cm <dbl>,
## #   hip_cm <dbl>

diabetes_data %>% filter(weight_kg > 100) 

## # A tibble: 53 x 23
##       id  chol stab.glu   hdl ratio glyhb location   age gender height weight
##    <dbl> <dbl>    <dbl> <dbl> <dbl> <dbl> <chr>    <dbl> <chr>   <dbl>  <dbl>
##  1  1002   228       92    37  6.20  4.64 Bucking…    58 female     61    256
##  2  1253   234       65    76  3.10  4.67 Bucking…    47 male       67    230
##  3  1254   203      299    43  4.70 12.7  Bucking…    38 female     69    288
##  4  1280   232       87    30  7.70  5.10 Bucking…    37 male       68    252
##  5  1326   262       84    38  6.90 NA    Bucking…    43 male       75    253
##  6  1501   243       52    59  4.10  4.41 Bucking…    37 female     64    233
##  7  2763   193      106    63  3.10  6.35 Bucking…    20 female     68    274
##  8  2778   443      185    23 19.3  14.3  Bucking…    51 female     70    235
##  9  3250   164       86    40  4.10  5.23 Bucking…    23 female     69    245
## 10  3751   180       84    69  2.60  5.20 Bucking…    40 female     68    264
## # … with 43 more rows, and 12 more variables: frame <chr>, bp.1s <dbl>,
## #   bp.1d <dbl>, bp.2s <dbl>, bp.2d <dbl>, waist <dbl>, hip <dbl>,
## #   time.ppn <dbl>, height_cm <dbl>, weight_kg <dbl>, waist_cm <dbl>,
## #   hip_cm <dbl>
…
## # A tibble: 4 x 23
##      id  chol stab.glu   hdl ratio glyhb location   age gender height weight
##   <dbl> <dbl>    <dbl> <dbl> <dbl> <dbl> <chr>    <dbl> <chr>   <dbl>  <dbl>
## 1  1277   179       80    92  1.90  4.18 Bucking…    41 female     72    118
## 2  4506   217       81    60  3.60  3.93 Bucking…    22 female     71    223
## 3 15260   193       77    45  4.30  4.74 Bucking…    42 female     75    186
## 4 21357   122       82    43  2.80  3.98 Louisa      36 female     71    183
## # … with 12 more variables: frame <chr>, bp.1s <dbl>, bp.1d <dbl>, bp.2s <dbl>,
## #   bp.2d <dbl>, waist <dbl>, hip <dbl>, time.ppn <dbl>, height_cm <dbl>,
## #   weight_kg <dbl>, waist_cm <dbl>, hip_cm <dbl>

diabetes_data %>% filter(gender == "male", height_cm > 180)

## # A tibble: 51 x 23
##       id  chol stab.glu   hdl ratio glyhb location   age gender height weight
##    <dbl> <dbl>    <dbl> <dbl> <dbl> <dbl> <chr>    <dbl> <chr>   <dbl>  <dbl>
##  1  1008   248       94    69  3.60  4.81 Bucking…    34 male       71    190
##  2  1304   265      330    34  7.80 15.5  Bucking…    61 male       74    191
##  3  1314   190      107    32  5.90  3.56 Bucking…    46 male       72    205
##  4  1315   173       80    57  3     6.21 Bucking…    57 male       71    145
##  5  1326   262       84    38  6.90 NA    Bucking…    43 male       75    253
##  6  2795   171       92    54  3.20  4.59 Bucking…    40 male       71    214
##  7  3752   204       57    74  2.80  6.11 Bucking…    52 male       75    142
##  8  4517   217       88    40  5.40  4.84 Bucking…    34 male       73    219
##  9  4751   218       87    38  5.70  5.52 Louisa      40 male       73    200
## 10  4795   158       91    48  3.30  4.31 Louisa      50 male       71    180
## # … with 41 more rows, and 12 more variables: frame <chr>, bp.1s <dbl>,
## #   bp.1d <dbl>, bp.2s <dbl>, bp.2d <dbl>, waist <dbl>, hip <dbl>,
## #   time.ppn <dbl>, height_cm <dbl>, weight_kg <dbl>, waist_cm <dbl>,
## #   hip_cm <dbl>

diabetes_data %>% filter(location == "Louisa",age > 30, gender == 'female')

## # A tibble: 95 x 23
##       id  chol stab.glu   hdl ratio glyhb location   age gender height weight
##    <dbl> <dbl>    <dbl> <dbl> <dbl> <dbl> <chr>    <dbl> <chr>   <dbl>  <dbl>
##  1  1024   242       82    54  4.5   4.77 Louisa      60 female     65    156
##  2  1029   215      128    34  6.30  4.97 Louisa      38 female     58    195
##  3  1031   183       79    46  4     4.59 Louisa      40 female     59    165
##  4  1036   213       83    47  4.5   3.41 Louisa      33 female     65    157
##  5  1037   255       78    38  6.70  4.33 Louisa      50 female     65    183
##  6  4750   300      103    44  6.80  5.18 Louisa      61 female     67    169
##  7  4758   185       84    52  3.60  5.28 Louisa      53 female     61    145
##  8  4760   218      182    54  4    10.6  Louisa      51 female     NA    215
##  9  4761   189       75    72  2.60  4.86 Louisa      49 female     62    205
## 10  4763   229       95    74  3.10  4.86 Louisa      65 female     62    151
## # … with 85 more rows, and 12 more variables: frame <chr>, bp.1s <dbl>,
## #   bp.1d <dbl>, bp.2s <dbl>, bp.2d <dbl>, waist <dbl>, hip <dbl>,
## #   time.ppn <dbl>, height_cm <dbl>, weight_kg <dbl>, waist_cm <dbl>,
## #   hip_cm <dbl>
…
## # A tibble: 1 x 1
##   max_height
##        <dbl>
## 1       183.

diabetes_data %>% filter(age == 20)  %>% summarise(min_height = min(height_cm)) 

## # A tibble: 1 x 1
##   min_height
##        <dbl>
## 1       147.

diabetes_data %>% select(starts_with("b"))

## # A tibble: 403 x 4
##    bp.1s bp.1d bp.2s bp.2d
##    <dbl> <dbl> <dbl> <dbl>
##  1   118    59    NA    NA
##  2   112    68    NA    NA
##  3   190    92   185    92
##  4   110    50    NA    NA
##  5   138    80    NA    NA
##  6   132    86    NA    NA
##  7   161   112   161   112
##  8    NA    NA    NA    NA
##  9   160    80   128    86
## 10   108    72    NA    NA
## # … with 393 more rows

diabetes_data %>% select(contains("eight"))

## # A tibble: 403 x 4
##    height weight height_cm weight_kg
##     <dbl>  <dbl>     <dbl>     <dbl>
##  1     62    121      158.      54.9
##  2     64    218      163.      98.9
##  3     61    256      155.     116. 
##  4     67    119      170.      54  
##  5     68    183      173.      83  
##  6     71    190      180.      86.2
##  7     69    191      175.      86.6
##  8     59    170      150.      77.1
##  9     69    166      175.      75.3
## 10     63    202      160       91.6
## # … with 393 more rows
…
